Comparación de modelos
…
library(modelr)
library(broom)
library(dplyr)
library(tidyr)
library(ggplot2)
library(purrr)

gapminder

Los datos de gapminder resumen el progreso de los países a lo largo del tiempo, mirando estadísticas como la esperanza de vida y el PBI. Los datos son de fácil acceso en R, gracias a Jenny Bryan, quien creó el paquete gapminder:

#install.packages("gapminder")
library(gapminder)
gapminder
#> # A tibble: 1,704 x 6
#>    country     continent  year lifeExp      pop gdpPercap
#>    <fct>       <fct>     <int>   <dbl>    <int>     <dbl>
#>  1 Afghanistan Asia       1952    28.8  8425333      779.
#>  2 Afghanistan Asia       1957    30.3  9240934      821.
#>  3 Afghanistan Asia       1962    32.0 10267083      853.
#>  4 Afghanistan Asia       1967    34.0 11537966      836.
#>  5 Afghanistan Asia       1972    36.1 13079460      740.
#>  6 Afghanistan Asia       1977    38.4 14880372      786.
#>  7 Afghanistan Asia       1982    39.9 12881816      978.
#>  8 Afghanistan Asia       1987    40.8 13867957      852.
#>  9 Afghanistan Asia       1992    41.7 16317921      649.
#> 10 Afghanistan Asia       1997    41.8 22227415      635.
#> # … with 1,694 more rows
…
hacer un loop para que itere sobre el código 😞

crear una función que haga el loop y nos devuelva las cosas de forma prolija 😒

usar un dataframe con nested data y map() 😃

Ahora, en lugar de repetir una acción para cada variable, queremos repetir una acción para cada país, un subconjunto de filas. Para hacer eso, necesitamos el nested dataframe.

by_country <- gapminder %>% 
  group_by(country, continent) %>% 
  nest()

by_country
#> # A tibble: 142 x 3
#> # Groups:   country, continent [710]
#>    country     continent           data
#>    <fct>       <fct>     <list<df[,4]>>
#>  1 Afghanistan Asia            [12 × 4]
#>  2 Albania     Europe          [12 × 4]
#>  3 Algeria     Africa          [12 × 4]
#>  4 Angola      Africa          [12 × 4]
#>  5 Argentina   Americas        [12 × 4]
#>  6 Australia   Oceania         [12 × 4]
#>  7 Austria     Europe          [12 × 4]
#>  8 Bahrain     Asia            [12 × 4]
#>  9 Bangladesh  Asia            [12 × 4]
#> 10 Belgium     Europe          [12 × 4]
#> # … with 132 more rows
…
country_model <- function(df) {
  lm(lifeExp ~ year, data = df)
}

Queremos aplicarlo a cada uno de los dataframes anidados. Podemos usar purrr::map() para aplicar la función que definimos a cada elemento

models <- map(by_country$data, country_model)

En lugar de crear un nuevo objeto en el entorno global, vamos a crear una nueva variable en el DF by_country. Ese es un trabajo para dplyr :: mutate ():

by_country <- by_country %>% 
  mutate(model = map(data, country_model))
by_country
#> # A tibble: 142 x 4
#> # Groups:   country, continent [710]
#>    country     continent           data model 
#>    <fct>       <fct>     <list<df[,4]>> <list>
#>  1 Afghanistan Asia            [12 × 4] <lm>  
#>  2 Albania     Europe          [12 × 4] <lm>  
#>  3 Algeria     Africa          [12 × 4] <lm>  
#>  4 Angola      Africa          [12 × 4] <lm>  
#>  5 Argentina   Americas        [12 × 4] <lm>  
#>  6 Australia   Oceania         [12 × 4] <lm>  
#>  7 Austria     Europe          [12 × 4] <lm>  
#>  8 Bahrain     Asia            [12 × 4] <lm>  
#>  9 Bangladesh  Asia            [12 × 4] <lm>  
#> 10 Belgium     Europe          [12 × 4] <lm>  
#> # … with 132 more rows

Esto tiene una gran ventaja: debido a que todos los objetos relacionados se almacenan juntos, no es necesario que los mantengas sincronizados manualmente cuando los filtres o organices. La semántica del DF nos ayuda a tener todo organizado:

by_country %>% 
  filter(continent == "Europe")
#> # A tibble: 30 x 4
#> # Groups:   country, continent [710]
#>    country                continent           data model 
#>    <fct>                  <fct>     <list<df[,4]>> <list>
#>  1 Albania                Europe          [12 × 4] <lm>  
#>  2 Austria                Europe          [12 × 4] <lm>  
#>  3 Belgium                Europe          [12 × 4] <lm>  
#>  4 Bosnia and Herzegovina Europe          [12 × 4] <lm>  
#>  5 Bulgaria               Europe          [12 × 4] <lm>  
#>  6 Croatia                Europe          [12 × 4] <lm>  
#>  7 Czech Republic         Europe          [12 × 4] <lm>  
#>  8 Denmark                Europe          [12 × 4] <lm>  
#>  9 Finland                Europe          [12 × 4] <lm>  
#> 10 France                 Europe          [12 × 4] <lm>  
#> # … with 20 more rows
by_country %>% 
  arrange(continent, country)
#> # A tibble: 142 x 4
#> # Groups:   country, continent [710]
#>    country                  continent           data model 
#>    <fct>                    <fct>     <list<df[,4]>> <list>
#>  1 Algeria                  Africa          [12 × 4] <lm>  
#>  2 Angola                   Africa          [12 × 4] <lm>  
#>  3 Benin                    Africa          [12 × 4] <lm>  
#>  4 Botswana                 Africa          [12 × 4] <lm>  
#>  5 Burkina Faso             Africa          [12 × 4] <lm>  
#>  6 Burundi                  Africa          [12 × 4] <lm>  
#>  7 Cameroon                 Africa          [12 × 4] <lm>  
#>  8 Central African Republic Africa          [12 × 4] <lm>  
#>  9 Chad                     Africa          [12 × 4] <lm>  
#> 10 Comoros                  Africa          [12 × 4] <lm>  
#> # … with 132 more rows

Si la lista de DF y la lista de modelos eran objetos separados, cada vez que se reordena o filtra un elemento, necesitas volver a ordenar o filtrar todos los demás para mantenerlos sincronizados. Sino el código continuará funcionando, ¡pero dará una respuesta incorrecta!

Unnesting

Antes agregamos los residuos a un modelo, utilizando add_residuals(). Ahora necesitamos hacerlo sobre 142 modelos y 142 datasets: Necesitamos utilizar la función map2()

by_country <- by_country %>% 
  mutate(
    resids = map2(data, model, add_residuals)
  )
by_country
#> # A tibble: 142 x 5
#> # Groups:   country, continent [710]
#>    country     continent           data model  resids           
#>    <fct>       <fct>     <list<df[,4]>> <list> <list>           
#>  1 Afghanistan Asia            [12 × 4] <lm>   <tibble [12 × 5]>
#>  2 Albania     Europe          [12 × 4] <lm>   <tibble [12 × 5]>
#>  3 Algeria     Africa          [12 × 4] <lm>   <tibble [12 × 5]>
#>  4 Angola      Africa          [12 × 4] <lm>   <tibble [12 × 5]>
#>  5 Argentina   Americas        [12 × 4] <lm>   <tibble [12 × 5]>
#>  6 Australia   Oceania         [12 × 4] <lm>   <tibble [12 × 5]>
#>  7 Austria     Europe          [12 × 4] <lm>   <tibble [12 × 5]>
#>  8 Bahrain     Asia            [12 × 4] <lm>   <tibble [12 × 5]>
#>  9 Bangladesh  Asia            [12 × 4] <lm>   <tibble [12 × 5]>
#> 10 Belgium     Europe          [12 × 4] <lm>   <tibble [12 × 5]>
#> # … with 132 more rows

Para analizar los resultados, volvemos la lista de DF a un DF normal. Previamente utilizamos nest() para convertir un DF normal en un DF anidado, y ahora hacemos lo contrario con unnest():

resids <- unnest(by_country, resids)
resids
#> # A tibble: 1,704 x 9
#> # Groups:   country, continent [710]
#>    country  continent     data model  year lifeExp    pop gdpPercap   resid
#>    <fct>    <fct>     <list<d> <lis> <int>   <dbl>  <int>     <dbl>   <dbl>
#>  1 Afghani… Asia      [12 × 4] <lm>   1952    28.8 8.43e6      779. -1.11  
#>  2 Afghani… Asia      [12 × 4] <lm>   1957    30.3 9.24e6      821. -0.952 
#>  3 Afghani… Asia      [12 × 4] <lm>   1962    32.0 1.03e7      853. -0.664 
#>  4 Afghani… Asia      [12 × 4] <lm>   1967    34.0 1.15e7      836. -0.0172
#>  5 Afghani… Asia      [12 × 4] <lm>   1972    36.1 1.31e7      740.  0.674 
#>  6 Afghani… Asia      [12 × 4] <lm>   1977    38.4 1.49e7      786.  1.65  
#>  7 Afghani… Asia      [12 × 4] <lm>   1982    39.9 1.29e7      978.  1.69  
#>  8 Afghani… Asia      [12 × 4] <lm>   1987    40.8 1.39e7      852.  1.28  
#>  9 Afghani… Asia      [12 × 4] <lm>   1992    41.7 1.63e7      649.  0.754 
#> 10 Afghani… Asia      [12 × 4] <lm>   1997    41.8 2.22e7      635. -0.534 
#> # … with 1,694 more rows
…
Empezamos por usar glance() Para calcular algunas métricas típicas. Si lo aplicamos sobre un modelo, obtenemos un DF de una fila y una columna para cada métrica

glance(nz_mod)
#> # A tibble: 1 x 11
#>   r.squared adj.r.squared sigma statistic p.value    df logLik   AIC   BIC
#>       <dbl>         <dbl> <dbl>     <dbl>   <dbl> <int>  <dbl> <dbl> <dbl>
#> 1     0.954         0.949 0.804      205. 5.41e-8     2  -13.3  32.6  34.1
#> # … with 2 more variables: deviance <dbl>, df.residual <int>

Podemos usar mutate() y unnest() para crear un DF con una fila por país (modelo):

by_country %>% 
  mutate(glnc = map(model, glance)) %>% 
  unnest(glnc)
#> # A tibble: 142 x 16
#> # Groups:   country, continent [710]
#>    country continent     data model resids r.squared adj.r.squared sigma
#>    <fct>   <fct>     <list<d> <lis> <list>     <dbl>         <dbl> <dbl>
#>  1 Afghan… Asia      [12 × 4] <lm>  <tibb…     0.948         0.942 1.22 
#>  2 Albania Europe    [12 × 4] <lm>  <tibb…     0.911         0.902 1.98 
#>  3 Algeria Africa    [12 × 4] <lm>  <tibb…     0.985         0.984 1.32 
#>  4 Angola  Africa    [12 × 4] <lm>  <tibb…     0.888         0.877 1.41 
#>  5 Argent… Americas  [12 × 4] <lm>  <tibb…     0.996         0.995 0.292
#>  6 Austra… Oceania   [12 × 4] <lm>  <tibb…     0.980         0.978 0.621
#>  7 Austria Europe    [12 × 4] <lm>  <tibb…     0.992         0.991 0.407
#>  8 Bahrain Asia      [12 × 4] <lm>  <tibb…     0.967         0.963 1.64 
#>  9 Bangla… Asia      [12 × 4] <lm>  <tibb…     0.989         0.988 0.977
#> 10 Belgium Europe    [12 × 4] <lm>  <tibb…     0.995         0.994 0.293
#> # … with 132 more rows, and 8 more variables: statistic <dbl>,
#> #   p.value <dbl>, df <int>, logLik <dbl>, AIC <dbl>, BIC <dbl>,
#> #   deviance <dbl>, df.residual <int>

Si queremos sacarnos de encima las columnas de listas (data,model,resids), necesitamos agregar .drop = TRUE: DEPRECATED –> ahora es con select

glnc <- by_country %>% 
  mutate(glnc = map(model, glance)) %>% 
  unnest(glnc) %>% 
  select(-c(data,model,resids))
glnc
#> # A tibble: 142 x 13
#> # Groups:   country, continent [710]
#>    country continent r.squared adj.r.squared sigma statistic  p.value    df
#>    <fct>   <fct>         <dbl>         <dbl> <dbl>     <dbl>    <dbl> <int>
#>  1 Afghan… Asia          0.948         0.942 1.22      181.  9.84e- 8     2
#>  2 Albania Europe        0.911         0.902 1.98      102.  1.46e- 6     2
#>  3 Algeria Africa        0.985         0.984 1.32      662.  1.81e-10     2
#>  4 Angola  Africa        0.888         0.877 1.41       79.1 4.59e- 6     2
#>  5 Argent… Americas      0.996         0.995 0.292    2246.  4.22e-13     2
#>  6 Austra… Oceania       0.980         0.978 0.621     481.  8.67e-10     2
#>  7 Austria Europe        0.992         0.991 0.407    1261.  7.44e-12     2
#>  8 Bahrain Asia          0.967         0.963 1.64      291.  1.02e- 8     2
#>  9 Bangla… Asia          0.989         0.988 0.977     930.  3.37e-11     2
#> 10 Belgium Europe        0.995         0.994 0.293    1822.  1.20e-12     2
#> # … with 132 more rows, and 5 more variables: logLik <dbl>, AIC <dbl>,
#> #   BIC <dbl>, deviance <dbl>, df.residual <int>

Podemos empezar a buscar los peores modelos ordenando por \(R^2\)

glnc %>% 
  arrange(r.squared)
#> # A tibble: 142 x 13
#> # Groups:   country, continent [710]
#>    country continent r.squared adj.r.squared sigma statistic p.value    df
#>    <fct>   <fct>         <dbl>         <dbl> <dbl>     <dbl>   <dbl> <int>
#>  1 Rwanda  Africa       0.0172      -0.0811   6.56     0.175  0.685      2
#>  2 Botswa… Africa       0.0340      -0.0626   6.11     0.352  0.566      2
#>  3 Zimbab… Africa       0.0562      -0.0381   7.21     0.596  0.458      2
#>  4 Zambia  Africa       0.0598      -0.0342   4.53     0.636  0.444      2
#>  5 Swazil… Africa       0.0682      -0.0250   6.64     0.732  0.412      2
#>  6 Lesotho Africa       0.0849      -0.00666  5.93     0.927  0.358      2
#>  7 Cote d… Africa       0.283        0.212    3.93     3.95   0.0748     2
#>  8 South … Africa       0.312        0.244    4.74     4.54   0.0588     2
#>  9 Uganda  Africa       0.342        0.276    3.19     5.20   0.0457     2
#> 10 Congo,… Africa       0.348        0.283    2.43     5.34   0.0434     2
#> # … with 132 more rows, and 5 more variables: logLik <dbl>, AIC <dbl>,
#> #   BIC <dbl>, deviance <dbl>, df.residual <int>
…
De esta forma recuperamos las métricas que refieren a los coeficientes en un formato consistente. Esto es sumamente útil si queremos trabajar con varios modelos a la vez, o automatizar un pipline de trabajo con una salida de un modelo.

Por ejemplo, obtengamos estos valores para todas las regresiones. Para ello, necesitamos mapear los modelos con la función tidy

tdy <- by_country %>% 
  mutate(tdy = map(model, tidy)) %>% 
  unnest(tdy) %>% 
  select(-c(data,model,resids))
tdy
#> # A tibble: 284 x 7
#> # Groups:   country, continent [710]
#>    country     continent term         estimate std.error statistic  p.value
#>    <fct>       <fct>     <chr>           <dbl>     <dbl>     <dbl>    <dbl>
#>  1 Afghanistan Asia      (Intercept)  -508.     40.5        -12.5  1.93e- 7
#>  2 Afghanistan Asia      year            0.275   0.0205      13.5  9.84e- 8
#>  3 Albania     Europe    (Intercept)  -594.     65.7         -9.05 3.94e- 6
#>  4 Albania     Europe    year            0.335   0.0332      10.1  1.46e- 6
#>  5 Algeria     Africa    (Intercept) -1068.     43.8        -24.4  3.07e-10
#>  6 Algeria     Africa    year            0.569   0.0221      25.7  1.81e-10
#>  7 Angola      Africa    (Intercept)  -377.     46.6         -8.08 1.08e- 5
#>  8 Angola      Africa    year            0.209   0.0235       8.90 4.59e- 6
#>  9 Argentina   Americas  (Intercept)  -390.      9.68       -40.3  2.14e-12
#> 10 Argentina   Americas  year            0.232   0.00489     47.4  4.22e-13
#> # … with 274 more rows
…
De la misma forma que con las otras funciones, podemos utilizar map2(model, data, augment) para calcular esto para todos nuestros modelos en simultaneo.

by_country %>%
  mutate(agmnt = map2( model,data,augment))
#> # A tibble: 142 x 6
#> # Groups:   country, continent [710]
#>    country     continent          data model resids         agmnt          
#>    <fct>       <fct>     <list<df[,4]> <lis> <list>         <list>         
#>  1 Afghanistan Asia           [12 × 4] <lm>  <tibble [12 ×… <tibble [12 × …
#>  2 Albania     Europe         [12 × 4] <lm>  <tibble [12 ×… <tibble [12 × …
#>  3 Algeria     Africa         [12 × 4] <lm>  <tibble [12 ×… <tibble [12 × …
#>  4 Angola      Africa         [12 × 4] <lm>  <tibble [12 ×… <tibble [12 × …
#>  5 Argentina   Americas       [12 × 4] <lm>  <tibble [12 ×… <tibble [12 × …
#>  6 Australia   Oceania        [12 × 4] <lm>  <tibble [12 ×… <tibble [12 × …
#>  7 Austria     Europe         [12 × 4] <lm>  <tibble [12 ×… <tibble [12 × …
#>  8 Bahrain     Asia           [12 × 4] <lm>  <tibble [12 ×… <tibble [12 × …
#>  9 Bangladesh  Asia           [12 × 4] <lm>  <tibble [12 ×… <tibble [12 × …
#> 10 Belgium     Europe         [12 × 4] <lm>  <tibble [12 ×… <tibble [12 × …
#> # … with 132 more rows

by_country %>%
  mutate(agmnt = map2( model,data,augment)) %>% 
  unnest(agmnt) %>% 
  select(-c(data,model,resids))
#> # A tibble: 1,704 x 13
#> # Groups:   country, continent [710]
#>    country continent  year lifeExp    pop gdpPercap .fitted .se.fit  .resid
#>    <fct>   <fct>     <int>   <dbl>  <int>     <dbl>   <dbl>   <dbl>   <dbl>
#>  1 Afghan… Asia       1952    28.8 8.43e6      779.    29.9   0.664 -1.11  
#>  2 Afghan… Asia       1957    30.3 9.24e6      821.    31.3   0.580 -0.952 
#>  3 Afghan… Asia       1962    32.0 1.03e7      853.    32.7   0.503 -0.664 
#>  4 Afghan… Asia       1967    34.0 1.15e7      836.    34.0   0.436 -0.0172
#>  5 Afghan… Asia       1972    36.1 1.31e7      740.    35.4   0.385  0.674 
#>  6 Afghan… Asia       1977    38.4 1.49e7      786.    36.8   0.357  1.65  
#>  7 Afghan… Asia       1982    39.9 1.29e7      978.    38.2   0.357  1.69  
#>  8 Afghan… Asia       1987    40.8 1.39e7      852.    39.5   0.385  1.28  
#>  9 Afghan… Asia       1992    41.7 1.63e7      649.    40.9   0.436  0.754 
#> 10 Afghan… Asia       1997    41.8 2.22e7      635.    42.3   0.503 -0.534 
#> # … with 1,694 more rows, and 4 more variables: .hat <dbl>, .sigma <dbl>,
#> #   .cooksd <dbl>, .std.resid <dbl>
…
